{
  "log" : {
    "version" : "1.2",
    "pages" : [ ],
    "entries" : [ {
      "startedDateTime" : "2023-07-10T11:49:04.717Z",
      "request" : {
        "method" : "POST",
        "url" : "https://demo-app.online/api/login",
        "httpVersion" : "",
        "cookies" : [ ],
        "headers" : [ {
          "name" : "Content-Type",
          "value" : "application/json"
        } ],
        "queryString" : [ ],
        "postData" : {
          "mimeType" : "application/json",
          "text" : "",
          "comment" : ""
        },
        "headersSize" : 0,
        "bodySize" : 0,
        "comment" : ""
      },
      "response" : {
        "status" : 401,
        "statusText" : "",
        "httpVersion" : "",
        "cookies" : [ ],
        "headers" : [ {
          "name" : "Keep-Alive",
          "value" : "timeout=5, max=100"
        }, {
          "name" : "date",
          "value" : "Mon, 10 Jul 2023 11:49:04 GMT"
        }, {
          "name" : "server",
          "value" : "LiteSpeed"
        }, {
          "name" : "x-ratelimit-limit",
          "value" : "60"
        }, {
          "name" : "vary",
          "value" : "Accept-Encoding"
        }, {
          "name" : "Connection",
          "value" : "Keep-Alive"
        }, {
          "name" : "x-ratelimit-remaining",
          "value" : "54"
        }, {
          "name" : "access-control-allow-origin",
          "value" : "*"
        }, {
          "name" : "x-powered-by",
          "value" : "PHP/7.4.33"
        }, {
          "name" : "content-type",
          "value" : "application/json"
        }, {
          "name" : "#status#",
          "value" : "HTTP/1.1 401 Unauthorized"
        }, {
          "name" : "cache-control",
          "value" : "no-cache, private"
        }, {
          "name" : "alt-svc",
          "value" : "h3=\":443\"; ma=2592000, h3-29=\":443\"; ma=2592000, h3-Q050=\":443\"; ma=2592000, h3-Q046=\":443\"; ma=2592000, h3-Q043=\":443\"; ma=2592000, quic=\":443\"; ma=2592000; v=\"43,46\""
        } ],
        "content" : {
          "size" : 24,
          "mimeType" : "application/json",
          "text" : "{\"error\":\"Unauthorised\"}",
          "comment" : ""
        },
        "redirectURL" : "",
        "headersSize" : 439,
        "bodySize" : -1,
        "comment" : ""
      },
      "cache" : { },
      "timings" : {
        "comment" : "",
        "receive" : 0,
        "send" : 0,
        "blocked" : -1,
        "dns" : -1,
        "wait" : 0,
        "connect" : 0,
        "ssl" : -1
      },
      "comment" : "",
      "_katalonRequestInformation" : {
        "name" : "0",
        "testObjectId" : "Object Repository/API/Login/loginBlankHttpBody",
        "harId" : "4dbbd4d7-9bd9-419c-bcb8-16de79a34fd0",
        "reportFolder" : null
      },
      "time" : 0
    } ],
    "comment" : ""
  }
}