{
  "log" : {
    "version" : "1.2",
    "pages" : [ ],
    "entries" : [ {
      "startedDateTime" : "2023-07-10T11:49:07.631Z",
      "request" : {
        "method" : "POST",
        "url" : "https://demo-app.online/api/login",
        "httpVersion" : "",
        "cookies" : [ ],
        "headers" : [ {
          "name" : "Content-Type",
          "value" : "application/x-www-form-urlencoded"
        } ],
        "queryString" : [ ],
        "postData" : {
          "mimeType" : "application/x-www-form-urlencoded",
          "params" : [ {
            "name" : "email",
            "value" : "giboybaik@gmail.com",
            "comment" : ""
          }, {
            "name" : "password",
            "value" : "testdulu",
            "comment" : ""
          } ],
          "comment" : ""
        },
        "headersSize" : 0,
        "bodySize" : 0,
        "comment" : ""
      },
      "response" : {
        "status" : 200,
        "statusText" : "",
        "httpVersion" : "",
        "cookies" : [ ],
        "headers" : [ {
          "name" : "Keep-Alive",
          "value" : "timeout=5, max=100"
        }, {
          "name" : "access-control-allow-origin",
          "value" : "*"
        }, {
          "name" : "date",
          "value" : "Mon, 10 Jul 2023 11:49:07 GMT"
        }, {
          "name" : "server",
          "value" : "LiteSpeed"
        }, {
          "name" : "x-ratelimit-limit",
          "value" : "60"
        }, {
          "name" : "vary",
          "value" : "Accept-Encoding"
        }, {
          "name" : "Connection",
          "value" : "Keep-Alive"
        }, {
          "name" : "x-powered-by",
          "value" : "PHP/7.4.33"
        }, {
          "name" : "content-type",
          "value" : "application/json"
        }, {
          "name" : "#status#",
          "value" : "HTTP/1.1 200 OK"
        }, {
          "name" : "cache-control",
          "value" : "no-cache, private"
        }, {
          "name" : "x-ratelimit-remaining",
          "value" : "53"
        } ],
        "content" : {
          "size" : 1346,
          "mimeType" : "application/json",
          "text" : "{\"success\":{\"member_name\":\"Basic\",\"member_id\":1,\"token\":\"eyJ0eXAiOiJKV1QiLCJhbGciOiJSUzI1NiJ9.eyJhdWQiOiIzIiwianRpIjoiM2RlNWU0YmEzMzU4YjQyNjY4YTViZWMwMDFiMWQxMjQzNTdjN2I3MmE2ODg5MDIyNjJhOGQwYzNlMDdiMzA3ZDM2YjljMWZiYmRhZDA4ZDgiLCJpYXQiOjE2ODg5ODk3NDcuOTMyMDMsIm5iZiI6MTY4ODk4OTc0Ny45MzIwMzYsImV4cCI6MTcyMDYxMjE0Ny45MjM5NjMsInN1YiI6IjYwMCIsInNjb3BlcyI6W119.C2hQ-_gNPd2-6Jq8TK-LyuNoNKTs9Wvqr6Z2e0Y_bj1Qu5FIm-wJ03MO4dj9vVnypieZ65i9UjrrxPz4_FjJN1bSLdkbstZY2cdcokecWAcP2hL73GLYr_-JAFbHN4CvltqS_uZAl7bh-xkhm6KB5F_kMiitPCvVBrVq4YZCHofApWs0R7LXvbo6pV_CSZ79uWbD0NckGZsO2u0QXbJimDbm9N_YElITA5_rLONSdykiPM8vPTtYtnZER9bbh8W9CPR90ElhREIKJdRA6hBUJF-UcqbpY39-uql0hpuLMc6pg5nOwlZpVgf7GstnTCG-NvpXqpswWRv1c8931XufLha69m0LPO0FzuQHikV7UFZd5YdxD4tjf3R0FlRCyZnug0rcSIaKsTTaQyobA0nFmycwe057Ywt3HBxwqWd19cwSENC5WdZsGD3ek29HzoxupOpRry9_nw-je1xT-SfbUUrK3gIshhoGGmy1KQxJP5TMFqlRoL3wQJSvyZXwRsiKIfEekV6UJO4ZrCSJVpbq36LwKRgq63-Uhfx1IvgFsYWytbbmtC2oq1iaZ09CRBnJlJZIPPP0h3BEZyiFwg_YQfOJ9IGCmT0FscEOsXcMAjl3e6_dO052UV9zimY9f9EBPNs7o2kUQMH9uZepK--Xu-AdSLtLti-pXwPXMMhQPGk\",\"name\":\"Randika E W\",\"email\":\"giboybaik@gmail.com\",\"birth_date\":\"2000-07-22\",\"whatsapp\":\"34953454567\",\"referral\":\"X071G\",\"points\":\"0\",\"bio\":\"FreshGraduate\",\"position\":\"Tester\",\"photo\":\"https:\\/\\/storage.googleapis.com\\/codingid-storage-bucket\\/storage\\/uploads\\/avatar\\/16889832491.png\",\"isPartner\":false}}",
          "comment" : ""
        },
        "redirectURL" : "",
        "headersSize" : 265,
        "bodySize" : -1,
        "comment" : ""
      },
      "cache" : { },
      "timings" : {
        "comment" : "",
        "receive" : 0,
        "send" : 0,
        "blocked" : -1,
        "dns" : -1,
        "wait" : 0,
        "connect" : 0,
        "ssl" : -1
      },
      "comment" : "",
      "_katalonRequestInformation" : {
        "name" : "1",
        "testObjectId" : "Object Repository/API/Login/loginValid",
        "harId" : "6e8afc8e-82dc-4c57-bded-ed1aa2945f23",
        "reportFolder" : null
      },
      "time" : 0
    } ],
    "comment" : ""
  }
}