{
  "log" : {
    "version" : "1.2",
    "pages" : [ ],
    "entries" : [ {
      "startedDateTime" : "2023-07-10T10:00:44.720Z",
      "request" : {
        "method" : "POST",
        "url" : "https://demo-app.online/api/updateprofile",
        "httpVersion" : "",
        "cookies" : [ ],
        "headers" : [ {
          "name" : "Content-Type",
          "value" : "application/json"
        }, {
          "name" : "Authorization",
          "value" : "Bearer eyJ0eXAiOiJKV1QiLCJhbGciOiJSUzI1NiJ9.eyJhdWQiOiIzIiwianRpIjoiMmVmYTM5MDMwNjE3NDQ4MGMwMzc1NmY1ZDNhODAyZmExYTVhNWVjZmNmYjAxZGNmNzQ2M2FiZWQ1Y2M0NTkwNjRlY2ExYTllMjVjMjAxNGYiLCJpYXQiOjE2ODg5ODMyNDIuNTMxMzcxLCJuYmYiOjE2ODg5ODMyNDIuNTMxMzczLCJleHAiOjE3MjA2MDU2NDIuNTI5NTgyLCJzdWIiOiI2MDAiLCJzY29wZXMiOltdfQ.UeOvjCoGq6bNnRJ91ZSjzXxJuRO3jpACxDIFbLEQNpqmqvMB2ohQS4IrbpGp_bguCG6b3BlbIKU0vpmAnA1EgDtAL_rxLuRqej6ElYp9FkLX54h6k2hy5c7X5ioaBQKRu7unCZg_VkZcowKYPI6PHQftwPuJaaMHfFSBBTndGKgTQoq1iUt9kUJ7qivN3mw7HCIZGYGa3lVZ4Ea4_4un_Kf_BkywTBkjVWXvJAqgNeVS6ltzqNWpE3hHdOYNN-iCeOZgOVwZE9GIHD5AEaMH-kz2uYTA_PKI_uL1sJ5Yzpc8c0o6p65EORkZpaDJi8uFDRZq_TADoCNpFcXbM0WKyM9wZ6lIuUVHb03BYHU22Y-YoEsCnbKMEf87EgSFWd-4kHnRFxhogP3L0hpNTWPtlDdc6vU4uyBFuCeQFymACIQaR1Tjcr5Rdh9VrRqvq4_cNledvkGfN3f8wYY6p2vw3Cw51e0-Tj0WvjlnSZ1H2xV4JYDj_0yPBGbB9Y8RFeylC_AgWg2vMs1h_pAR721N8McPVXUUprGt35rGHUl9EFbYVZ3fc5LhtWIZK1hbr4wYPfqbAodKSlyJZq-DtL5xBdJszdyysEgeNbtT9AbGlz9v_0-iy-xHRN0Rf9Roh8xLnm_EwJkuvna5m_0hNnTacWRFT4wyqgEz63ODvpHgwhc"
        } ],
        "queryString" : [ ],
        "postData" : {
          "mimeType" : "application/json",
          "text" : "",
          "comment" : ""
        },
        "headersSize" : 0,
        "bodySize" : 0,
        "comment" : ""
      },
      "response" : {
        "status" : 200,
        "statusText" : "",
        "httpVersion" : "",
        "cookies" : [ ],
        "headers" : [ {
          "name" : "Keep-Alive",
          "value" : "timeout=5, max=100"
        }, {
          "name" : "access-control-allow-origin",
          "value" : "*"
        }, {
          "name" : "date",
          "value" : "Mon, 10 Jul 2023 10:00:44 GMT"
        }, {
          "name" : "server",
          "value" : "LiteSpeed"
        }, {
          "name" : "x-ratelimit-limit",
          "value" : "60"
        }, {
          "name" : "vary",
          "value" : "Accept-Encoding"
        }, {
          "name" : "Connection",
          "value" : "Keep-Alive"
        }, {
          "name" : "x-powered-by",
          "value" : "PHP/7.4.33"
        }, {
          "name" : "content-type",
          "value" : "application/json"
        }, {
          "name" : "#status#",
          "value" : "HTTP/1.1 200 OK"
        }, {
          "name" : "cache-control",
          "value" : "no-cache, private"
        }, {
          "name" : "x-ratelimit-remaining",
          "value" : "58"
        } ],
        "content" : {
          "size" : 51,
          "mimeType" : "application/json",
          "text" : "{\"status\":200,\"data\":\"success\",\"message\":\"success\"}",
          "comment" : ""
        },
        "redirectURL" : "",
        "headersSize" : 265,
        "bodySize" : -1,
        "comment" : ""
      },
      "cache" : { },
      "timings" : {
        "comment" : "",
        "ssl" : -1,
        "connect" : 0,
        "blocked" : -1,
        "receive" : 0,
        "send" : 0,
        "wait" : 0,
        "dns" : -1
      },
      "comment" : "",
      "_katalonRequestInformation" : {
        "name" : "9",
        "testObjectId" : "Object Repository/API/UpdateProfile/updateProfileBlankWhatsApp",
        "harId" : "6c525030-e245-43c3-918d-2f3ad269de9e",
        "reportFolder" : null
      },
      "time" : 0
    } ],
    "comment" : ""
  }
}